<svg xmlns="http://www.w3.org/2000/svg" viewBox="0 0 450.87 450.87" id="avg">
	<title>Illustration of a smirking face.</title>
	<g>
		<path d="M225.43,89.31a136.12,136.12,0,1,1-96.25,39.87,135.25,135.25,0,0,1,96.25-39.87m0-8a144.12,144.12,0,1,0,101.91,42.21A143.68,143.68,0,0,0,225.43,81.31Z"></path>
		<path d="M214.43,308.11c-28.13,0-54.14-1.44-68.06-27.2l7-3.8c12.52,23.16,36.26,23.1,66.31,23,3.53,0,7.14,0,10.68,0,30.6.08,54.79.13,67.34-23.51l7.06,3.75C290,308.23,261,308.16,230.38,308.09c-3.53,0-7.12,0-10.63,0Z"></path>
		<path d="M190.22,211.74A16.75,16.75,0,1,1,207,195,16.76,16.76,0,0,1,190.22,211.74Zm0-25.5A8.75,8.75,0,1,0,199,195,8.76,8.76,0,0,0,190.22,186.24Z"></path>
		<path d="M261.18,211.75a16.77,16.77,0,1,1,3.38-.34A16.92,16.92,0,0,1,261.18,211.75Zm.05-25.5A8.74,8.74,0,1,0,266,187.7,8.74,8.74,0,0,0,261.23,186.25Z"></path>
	</g>
</svg>