{
  "appPageId" : "50011b23-7470-4534-a265-7de957f0d7d0",
  "componentName" : "community_layout:sldsFlexibleLayout",
  "id" : "c25bb142-84ac-4d46-a0da-ac3c504b7c88",
  "label" : "Forgot Password",
  "regions" : [ {
    "components" : [ {
      "componentAttributes" : {
        "sectionConfig" : "{\"UUID\":\"66b6956a-512d-44a0-bd47-982862294f71\",\"columns\":[{\"UUID\":\"2dc01654-1ccc-4b7a-9851-d83e00764c5d\",\"columnName\":\"Column 1\",\"columnKey\":\"col1\",\"columnWidth\":\"12\",\"seedComponents\":null}]}"
      },
      "componentName" : "community_layout:section",
      "id" : "66b6956a-512d-44a0-bd47-982862294f71",
      "regions" : [ {
        "components" : [ {
          "componentAttributes" : { },
          "componentName" : "community_login:communityLogo",
          "id" : "6e6e25a9-761d-4a55-adb3-35d17a7df3e5",
          "renderPriority" : "NEUTRAL",
          "renditionMap" : { },
          "type" : "component"
        }, {
          "componentAttributes" : {
            "cancelButtonLabel" : "Cancel",
            "checkEmailUrl" : "./CheckPasswordResetEmail",
            "instructionsLabel" : "To reset your password, enter your username. We'll send a reset-password link to the email address associated with your account.",
            "submitButtonLabel" : "Reset",
            "titleLabel" : "Forget your password?",
            "usernameLabel" : "Username"
          },
          "componentName" : "community_login:forgotPassword",
          "id" : "9488f9e2-cf38-46e6-9510-91855c26d921",
          "renderPriority" : "NEUTRAL",
          "renditionMap" : { },
          "type" : "component"
        } ],
        "id" : "2dc01654-1ccc-4b7a-9851-d83e00764c5d",
        "regionLabel" : "Column 1",
        "regionName" : "col1",
        "renditionMap" : { },
        "type" : "region"
      } ],
      "renderPriority" : "NEUTRAL",
      "renditionMap" : { },
      "type" : "component"
    } ],
    "id" : "bb52ee94-de9e-4e8a-a030-7ab646f38911",
    "regionName" : "content",
    "type" : "region"
  }, {
    "components" : [ {
      "componentAttributes" : {
        "description" : "",
        "metaTags" : "",
        "pageTitle" : "Forgot Password",
        "recordId" : "{!recordId}"
      },
      "componentName" : "community_builder:seoAssistant",
      "id" : "6970cf5f-0854-450b-90b0-6b22eaf5dd81",
      "renderPriority" : "NEUTRAL",
      "renditionMap" : { },
      "type" : "component"
    } ],
    "id" : "b1812b39-e759-4c3f-97ae-a2e46330425a",
    "regionName" : "sfdcHiddenRegion",
    "type" : "region"
  } ],
  "themeLayoutType" : "Inner",
  "type" : "view",
  "viewType" : "forgot-password"
}