<svg xmlns="http://www.w3.org/2000/svg" viewBox="0 0 450.87 450.87" id="secondaryHome">
	<title>Illustration of a house next to a palm tree.</title>
	<g>
		<path d="M158.22,140.17,119.59,176V163.71h-48V220.6L36.37,253.32l4.24,4.58,14.3-13.28V380.29H261.53V244.62l14.3,13.28,4.24-4.58ZM142.28,359.42V304.37h31.87v55.05Zm44,6.45v7.81H130.16v-7.81Zm69,8.18H192.51V359.63H180.39v-61.5H136.05v61.5H123.92v14.42H61.14V238.83l16.71-15.51V170h35.5v20.4l44.87-41.66,97.07,90.13Z"></path>
		<path d="M345.67,380.17h-58.3l1.77-4.3C302.63,343,310.9,303,313.71,257A589.81,589.81,0,0,0,309,140.68c-8.88,13.28-17.29,32.52-21.19,41.46-1,2.24-1.69,3.86-2.12,4.74l-5.34,10.93-.62-13.06c-5,11.43-7.16,24.17-6.71,38.64l.29,9.19-5.82-7.11c-8.11-9.91-12.37-20.9-13.38-34.57a57,57,0,0,1,9.22-35.45,62.44,62.44,0,0,1,8.12-10.07c-4.38,2-8.42,3.91-11.29,5.29-1.68.8-3,1.41-3.68,1.73l-12.38,5.5,9.08-10.77a84.6,84.6,0,0,0-29.48,23.61L220,175.35l-1.66-5.71c-2.42-8.35,4.22-25,11.7-34.8a57.66,57.66,0,0,1,30-20.54,60,60,0,0,1,11.2-2.22c-4.15-1.12-8.2-2-12-2.86l-14.55-3.1,14.69-3a80,80,0,0,0-35.32-.74l-8.24,1.57L221,97.34c10.93-13.77,37.62-24,60-17.2,9.14,2.78,21,7.56,28.78,18.36a42.8,42.8,0,0,1,17.46-27.94c14-10.11,33.59-12.75,52.31-7.07a15,15,0,0,1,1.42.54l1,.41,7.93,3.16-8.1,2.69c-12.12,4-22.19,9.93-30.53,17.9L352,88l11.58-2.18L353.2,94.68c-1,.85-2,1.7-3,2.54a75.81,75.81,0,0,0-11.88,13.42,82.4,82.4,0,0,1,34.22-1c21.43,4.17,37.59,18,46.73,40l3.7,8.92-8.22-5.07c-.23-.14-18.66-11.44-34.78-17.2.37.38.67.68.83.83l12.28,11.3-15.53-6.1c-3.6-1.41-7-2.65-10.16-3.72a55.05,55.05,0,0,1,15.77,19.91c8.4,17.78,7.35,39.62-2.73,57l-4.58,7.88-1.21-9c-1.95-14.56-6.31-26.75-13.52-37.63,0,.45,0,.87,0,1.22,0,.59,0,1,.05,1.24l.85,15.09-6.75-13.52c-8.06-16.11-15.19-27.75-26.81-38.54,5.36,22,15.05,70.25,16.84,90.55a752.88,752.88,0,0,1,2.6,81.12l-.14,6.92c-.3,15.11-.85,43.22-1.27,52.7a26,26,0,0,1-.32,2.77c-.06.37-.12.76-.17,1.15Zm-49-6.24h43.6c0-.23,0-.45.06-.67.42-9.4,1-37.46,1.26-52.54l.14-6.93a748,748,0,0,0-2.57-80.44c-2.14-24.27-15.66-88.84-19.21-98.94l-3.53-10,8.38,6.53c13.15,10.22,21.54,20.81,29.16,34l-1.13-8.54,6.85,8.07a90,90,0,0,1,19.43,39.32,55.64,55.64,0,0,0-1.56-42.58c-7.25-15.34-21.15-25.4-39.16-28.35l.64-6.19a102.52,102.52,0,0,1,27.13,5l-7.21-6.09,10.83,1.59C382,129,398.85,137.41,409.06,143c-7.52-13-18.14-21.67-31.69-25.8-22.17-6.77-43.59,1-45.19,2a1.06,1.06,0,0,0,.24-.21l-4.56-4.25c.16-.19.77-1.11,1.32-1.93A123.47,123.47,0,0,1,341,97.44l-8.33,2.89,6.73-8.43a81.41,81.41,0,0,1,31.44-24.09c-14.55-2.63-29.39.17-40,7.81C321,82.68,315.64,93,315.29,105.35a32,32,0,0,0,.4,5.17l.07.53-6.08,1.31c-4-13-13.44-21-30.57-26.25-15.89-4.82-34.81.27-46.44,8.73a83.3,83.3,0,0,1,39.85,6.09l9.43,3.88-7.81,1.61a125.3,125.3,0,0,1,22.52,8.41l-2.28,5.78a56.17,56.17,0,0,0-32.62-.34A51.59,51.59,0,0,0,235,138.64a60,60,0,0,0-10.24,21.59,89.52,89.52,0,0,1,37.84-23.45l10.21-3.2-5.95,7.07c8-3.65,17.71-7.77,24.2-9.15l1.81,5.94c-6.86,2.75-18.07,11.7-24.21,21.35-6.39,10.07-9.1,20.42-8.26,31.64a54.8,54.8,0,0,0,6.56,23.14c.85-15.82,5.05-29.66,12.75-42.07L285,163l.45,9.24c5.51-12.26,14.34-30.67,23.19-41.48l4.43-5.41,1.07,6.91a595.81,595.81,0,0,1,5.84,125.11C317.21,302.07,309.37,341.26,296.63,373.93Z"></path>
	</g>
</svg>